^C:\USERS\ADMINISTRADOR\DESKTOP\SFML-GRAFICOS\GRAFICOS_II\GRAFICOS_II\OVERTAKEN\X64\DEBUG\MAIN.OBJ
C:\USERS\ADMINISTRADOR\DESKTOP\SFML-GRAFICOS\GRAFICOS_II\GRAFICOS_II\X64\DEBUG\OVERTAKEN.ILK
C:\USERS\ADMINISTRADOR\DESKTOP\SFML-GRAFICOS\GRAFICOS_II\GRAFICOS_II\X64\DEBUG\OVERTAKEN.EXE
C:\USERS\ADMINISTRADOR\DESKTOP\SFML-GRAFICOS\GRAFICOS_II\GRAFICOS_II\X64\DEBUG\OVERTAKEN.PDB
