^C:\USERS\ADMINISTRADOR\DESKTOP\SFML-GRAFICOS\GRAFICOS_II\GRAFICOS_II\OVERTAKEN\MAIN.CPP
/c /I"C:\USERS\ADMINISTRADOR\DESKTOP\SFML-GRAFICOS\GRAFICOS_II\GRAFICOS_II\DEPENDENCIES\SFML-64\INCLUDE" /Zi /nologo /W3 /WX- /diagnostics:classic /sdl /O2 /Oi /GL /D SFML_STATIC /D _MBCS /D _MBCS /Gm- /EHsc /MD /GS /Gy /fp:precise /permissive- /Zc:wchar_t /Zc:forScope /Zc:inline /Fo"X64\RELEASE\\" /Fd"X64\RELEASE\VC141.PDB" /Gd /TP /FC C:\USERS\ADMINISTRADOR\DESKTOP\SFML-GRAFICOS\GRAFICOS_II\GRAFICOS_II\OVERTAKEN\MAIN.CPP
^C:\USERS\DEATHSPOTS\DESKTOP\REPOSITORIOS\GRAFICOS_II\GRAFICOS_II\OVERTAKEN\MAIN.CPP
/c /I"C:\USERS\DEATHSPOTS\DESKTOP\REPOSITORIOS\GRAFICOS_II\GRAFICOS_II\DEPENDENCIES\SFML-64\INCLUDE" /Zi /nologo /W3 /WX- /diagnostics:classic /sdl /O2 /Oi /GL /D SFML_STATIC /D _MBCS /D _MBCS /Gm- /EHsc /MD /GS /Gy /fp:precise /permissive- /Zc:wchar_t /Zc:forScope /Zc:inline /Fo"X64\RELEASE\\" /Fd"X64\RELEASE\VC141.PDB" /Gd /TP /FC C:\USERS\DEATHSPOTS\DESKTOP\REPOSITORIOS\GRAFICOS_II\GRAFICOS_II\OVERTAKEN\MAIN.CPP
