^C:\USERS\ADMINISTRADOR\DESKTOP\SFML-GRAFICOS\GRAFICOS_II\GRAFICOS_II\OVERTAKEN\X64\RELEASE\MAIN.OBJ
/OUT:"C:\USERS\ADMINISTRADOR\DESKTOP\SFML-GRAFICOS\GRAFICOS_II\GRAFICOS_II\X64\RELEASE\OVERTAKEN.EXE" /NOLOGO /LIBPATH:"C:\USERS\ADMINISTRADOR\DESKTOP\SFML-GRAFICOS\GRAFICOS_II\GRAFICOS_II\DEPENDENCIES\SFML-64\LIB" "SFML-SYSTEM-S.LIB" "SFML-WINDOW-S.LIB" "SFML-GRAPHICS-S.LIB" OPENGL32.LIB WINMM.LIB GDI32.LIB FREETYPE.LIB JPEG.LIB KERNEL32.LIB USER32.LIB GDI32.LIB WINSPOOL.LIB COMDLG32.LIB ADVAPI32.LIB SHELL32.LIB OLE32.LIB OLEAUT32.LIB UUID.LIB ODBC32.LIB ODBCCP32.LIB /MANIFEST /MANIFESTUAC:"level='asInvoker' uiAccess='false'" /manifest:embed /DEBUG:FULL /PDB:"C:\USERS\ADMINISTRADOR\DESKTOP\SFML-GRAFICOS\GRAFICOS_II\GRAFICOS_II\X64\RELEASE\OVERTAKEN.PDB" /OPT:REF /OPT:ICF /LTCG:incremental /TLBID:1 /DYNAMICBASE /NXCOMPAT /IMPLIB:"C:\USERS\ADMINISTRADOR\DESKTOP\SFML-GRAFICOS\GRAFICOS_II\GRAFICOS_II\X64\RELEASE\OVERTAKEN.LIB" /MACHINE:X64 X64\RELEASE\MAIN.OBJ
^C:\USERS\DEATHSPOTS\DESKTOP\REPOSITORIOS\GRAFICOS_II\GRAFICOS_II\OVERTAKEN\X64\RELEASE\MAIN.OBJ
/OUT:"C:\USERS\DEATHSPOTS\DESKTOP\REPOSITORIOS\GRAFICOS_II\GRAFICOS_II\X64\RELEASE\OVERTAKEN.EXE" /NOLOGO /LIBPATH:"C:\USERS\DEATHSPOTS\DESKTOP\REPOSITORIOS\GRAFICOS_II\GRAFICOS_II\DEPENDENCIES\SFML-64\LIB" "SFML-SYSTEM-S.LIB" "SFML-WINDOW-S.LIB" "SFML-GRAPHICS-S.LIB" OPENGL32.LIB WINMM.LIB GDI32.LIB FREETYPE.LIB JPEG.LIB KERNEL32.LIB USER32.LIB GDI32.LIB WINSPOOL.LIB COMDLG32.LIB ADVAPI32.LIB SHELL32.LIB OLE32.LIB OLEAUT32.LIB UUID.LIB ODBC32.LIB ODBCCP32.LIB /MANIFEST /MANIFESTUAC:"level='asInvoker' uiAccess='false'" /manifest:embed /DEBUG:FULL /PDB:"C:\USERS\DEATHSPOTS\DESKTOP\REPOSITORIOS\GRAFICOS_II\GRAFICOS_II\X64\RELEASE\OVERTAKEN.PDB" /OPT:REF /OPT:ICF /LTCG:incremental /TLBID:1 /DYNAMICBASE /NXCOMPAT /IMPLIB:"C:\USERS\DEATHSPOTS\DESKTOP\REPOSITORIOS\GRAFICOS_II\GRAFICOS_II\X64\RELEASE\OVERTAKEN.LIB" /MACHINE:X64 X64\RELEASE\MAIN.OBJ
