^C:\USERS\ADMINISTRADOR\DESKTOP\SFML-GRAFICOS\GRAFICOS_II\GRAFICOS_II\OVERTAKEN\MAIN.CPP
C:\USERS\ADMINISTRADOR\DESKTOP\SFML-GRAFICOS\GRAFICOS_II\GRAFICOS_II\OVERTAKEN\DEBUG\VC141.PDB
C:\USERS\ADMINISTRADOR\DESKTOP\SFML-GRAFICOS\GRAFICOS_II\GRAFICOS_II\OVERTAKEN\DEBUG\VC141.IDB
C:\USERS\ADMINISTRADOR\DESKTOP\SFML-GRAFICOS\GRAFICOS_II\GRAFICOS_II\OVERTAKEN\DEBUG\MAIN.OBJ
